<svg id="Flag_icon" data-name="Flag icon" xmlns="http://www.w3.org/2000/svg" width="37.813" height="37.79" viewBox="0 0 37.813 37.79">
  <path id="Path_1580" data-name="Path 1580" d="M31.708,19.118,31.7.149,15.443,4.06l14.05,6.82v8.238H23.42v5.536H12.348v5.536H0v7.75H37.813V19.118Zm-2.219-10.7L22,4.781,29.489,3ZM35.6,21.332v3.321H25.634V21.332Zm0,5.536v3.321H14.563V26.868ZM2.214,35.725V32.4H35.6v3.321Z" transform="translate(0 -0.149)"/>
</svg>
