<svg xmlns="http://www.w3.org/2000/svg" width="98" height="98" viewBox="0 0 98 98">
  <g id="Group_618" data-name="Group 618" transform="translate(-1472 -2188)">
    <g id="Ellipse_77" data-name="Ellipse 77" transform="translate(1472 2188)" fill="none" stroke="#000" stroke-width="2" opacity="0.3">
      <circle cx="49" cy="49" r="49" stroke="none"/>
      <circle cx="49" cy="49" r="48" fill="none"/>
    </g>
    <path id="Path_1125" data-name="Path 1125" d="M0,84.616,17.351,102,50.668,68.716,45.885,64,17.351,92.5,4.717,79.866Z" transform="translate(1495.666 2154.001)" opacity="0.3"/>
  </g>
</svg>
