<svg xmlns="http://www.w3.org/2000/svg" width="462" height="93" viewBox="0 0 462 93">
  <text id="Before_a_buy_or_sell_the_Maverix_Team_communicates_with_the_investor." data-name="Before a buy or sell, the Maverix Team communicates with the investor." font-size="20" font-family="CenturyGothic, Century Gothic"><tspan x="0" y="19">Before a buy or sell, the Maverix Team </tspan><tspan x="0" y="49">communicates with the investor.</tspan></text>
</svg>
