<svg xmlns="http://www.w3.org/2000/svg" xmlns:xlink="http://www.w3.org/1999/xlink" width="500.255" height="416.876" viewBox="0 0 500.255 416.876">
  <defs>
    <clipPath id="clip-path">
      <rect id="Rectangle_130" data-name="Rectangle 130" width="24.363" height="149.478" transform="translate(591.264 204.942) rotate(27.601)" fill="none"/>
    </clipPath>
  </defs>
  <g id="Group_503" data-name="Group 503" transform="translate(-112.6 -28.361)">
    <g id="Group_402" data-name="Group 402">
      <g id="Group_400" data-name="Group 400">
        <rect id="Rectangle_107" data-name="Rectangle 107" width="24.363" height="149.478" transform="translate(591.264 204.942) rotate(27.601)" fill="#ccc"/>
        <g id="Group_399" data-name="Group 399">
          <g id="Group_398" data-name="Group 398" clip-path="url(#clip-path)">
            <g id="Group_397" data-name="Group 397">
              <rect id="Rectangle_108" data-name="Rectangle 108" width="9.605" height="2.108" transform="translate(605.249 219.655) rotate(27.6)" fill="#999"/>
              <rect id="Rectangle_109" data-name="Rectangle 109" width="9.605" height="2.108" transform="translate(596.349 236.679) rotate(27.6)" fill="#999"/>
              <rect id="Rectangle_110" data-name="Rectangle 110" width="9.605" height="2.108" transform="translate(605.008 227.195) rotate(27.6)" fill="#999"/>
              <rect id="Rectangle_111" data-name="Rectangle 111" width="9.605" height="2.108" transform="translate(601.86 233.216) rotate(27.6)" fill="#999"/>
              <rect id="Rectangle_112" data-name="Rectangle 112" width="9.605" height="2.108" transform="translate(587.217 254.146) rotate(27.6)" fill="#999"/>
              <rect id="Rectangle_113" data-name="Rectangle 113" width="9.605" height="2.108" transform="translate(595.876 244.663) rotate(27.6)" fill="#999"/>
              <rect id="Rectangle_114" data-name="Rectangle 114" width="9.605" height="2.108" transform="translate(592.728 250.683) rotate(27.6)" fill="#999"/>
              <rect id="Rectangle_115" data-name="Rectangle 115" width="9.605" height="2.108" transform="translate(578.085 271.614) rotate(27.6)" fill="#999"/>
              <rect id="Rectangle_116" data-name="Rectangle 116" width="9.605" height="2.108" transform="translate(586.744 262.13) rotate(27.6)" fill="#999"/>
              <rect id="Rectangle_117" data-name="Rectangle 117" width="9.605" height="2.108" transform="translate(583.596 268.151) rotate(27.6)" fill="#999"/>
              <rect id="Rectangle_118" data-name="Rectangle 118" width="9.605" height="2.108" transform="translate(568.953 289.082) rotate(27.6)" fill="#999"/>
              <rect id="Rectangle_119" data-name="Rectangle 119" width="9.605" height="2.108" transform="translate(577.612 279.598) rotate(27.6)" fill="#999"/>
              <rect id="Rectangle_120" data-name="Rectangle 120" width="9.605" height="2.108" transform="translate(574.464 285.618) rotate(27.6)" fill="#999"/>
              <rect id="Rectangle_121" data-name="Rectangle 121" width="9.605" height="2.108" transform="translate(559.821 306.549) rotate(27.6)" fill="#999"/>
              <rect id="Rectangle_122" data-name="Rectangle 122" width="9.605" height="2.108" transform="translate(568.479 297.066) rotate(27.6)" fill="#999"/>
              <rect id="Rectangle_123" data-name="Rectangle 123" width="9.605" height="2.108" transform="translate(565.332 303.086) rotate(27.6)" fill="#999"/>
              <rect id="Rectangle_124" data-name="Rectangle 124" width="9.605" height="2.108" transform="translate(550.689 324.017) rotate(27.6)" fill="#999"/>
              <rect id="Rectangle_125" data-name="Rectangle 125" width="9.605" height="2.108" transform="translate(559.347 314.533) rotate(27.6)" fill="#999"/>
              <rect id="Rectangle_126" data-name="Rectangle 126" width="9.605" height="2.108" transform="translate(556.2 320.554) rotate(27.6)" fill="#999"/>
              <rect id="Rectangle_127" data-name="Rectangle 127" width="9.605" height="2.108" transform="translate(541.557 341.484) rotate(27.6)" fill="#999"/>
              <rect id="Rectangle_128" data-name="Rectangle 128" width="9.605" height="2.108" transform="translate(550.216 332.001) rotate(27.6)" fill="#999"/>
              <rect id="Rectangle_129" data-name="Rectangle 129" width="9.605" height="2.108" transform="translate(547.068 338.021) rotate(27.6)" fill="#999"/>
            </g>
          </g>
        </g>
      </g>
      <g id="Group_401" data-name="Group 401">
        <path id="Path_1272" data-name="Path 1272" d="M516.484,316.638l.149,20.3,12.3-16.15Z" fill="#b9a2ba"/>
        <rect id="Rectangle_131" data-name="Rectangle 131" width="12.884" height="21.318" rx="2.336" transform="translate(551.222 212.406) rotate(18.431)" fill="#7d677f"/>
        <rect id="Rectangle_132" data-name="Rectangle 132" width="13.119" height="89.06" transform="translate(544.642 232.147) rotate(18.432)" fill="#7d677f"/>
        <path id="Path_1273" data-name="Path 1273" d="M551.594,269.074c-4.04-6.756,15.809-29.451,14.312-34.388-.823-2.712-3.306-3.815-5.379-4.262l1.955-5.87-15.334-5.11-6.74,20.224,15.335,5.111.113.113-9.7,30.545S555.633,275.83,551.594,269.074Z" fill="#b9a2ba"/>
      </g>
      <path id="Path_1274" data-name="Path 1274" d="M538.5,373.528l-39.218-16.322,25.79-78.223,50.753,21.123Z" fill="#0071bc"/>
      <rect id="Rectangle_133" data-name="Rectangle 133" width="60.596" height="11.557" transform="matrix(0.923, 0.384, -0.384, 0.923, 522.768, 278.022)" fill="#29abe2"/>
    </g>
    <path id="Path_1275" data-name="Path 1275" d="M509.18,378.944c4.429-.83-1.677-6.376-7.779-11.014q1.5,5.625,3.466,10.991A15.908,15.908,0,0,0,509.18,378.944Z" fill="#b0d0ff"/>
    <g id="Group_409" data-name="Group 409">
      <path id="Path_1276" data-name="Path 1276" d="M525.6,362.508s-2.311,4.887.53,7.5l-38.207.122.081-7.019Z" fill="#fff"/>
      <path id="Path_1277" data-name="Path 1277" d="M526.036,337.163s-2.311,4.887.531,7.5l-38.208.122.082-7.018Z" fill="#fff"/>
      <path id="Path_1278" data-name="Path 1278" d="M527.093,334.428l.018,3.119-38.67.222.038,6.628,38.67-.222.018,3.119-42.69.245v-.122l-.017-3-.038-6.628-.018-3.119Z" fill="#4f64b1"/>
      <g id="Group_403" data-name="Group 403">
        <line id="Line_18" data-name="Line 18" x1="34.284" y2="0.197" transform="translate(489.764 338.929)" fill="#cae0ff"/>
        <rect id="Rectangle_134" data-name="Rectangle 134" width="34.285" height="0.585" transform="matrix(1, -0.006, 0.006, 1, 489.763, 338.834)" fill="#162659"/>
      </g>
      <g id="Group_404" data-name="Group 404">
        <line id="Line_19" data-name="Line 19" x1="34.284" y2="0.197" transform="translate(489.775 340.757)" fill="#cae0ff"/>
        <rect id="Rectangle_135" data-name="Rectangle 135" width="34.285" height="0.585" transform="matrix(1, -0.006, 0.006, 1, 489.773, 340.661)" fill="#162659"/>
      </g>
      <g id="Group_405" data-name="Group 405">
        <line id="Line_20" data-name="Line 20" x1="34.284" y2="0.197" transform="translate(489.785 342.511)" fill="#cae0ff"/>
        <rect id="Rectangle_136" data-name="Rectangle 136" width="34.285" height="0.585" transform="translate(489.783 342.415) rotate(-0.329)" fill="#162659"/>
        <rect id="Rectangle_137" data-name="Rectangle 137" width="34.285" height="0.585" transform="translate(489.398 364.422) rotate(-0.329)" fill="#a29b00"/>
        <rect id="Rectangle_138" data-name="Rectangle 138" width="34.285" height="0.585" transform="translate(489.408 366.249) rotate(-0.329)" fill="#a29b00"/>
        <rect id="Rectangle_139" data-name="Rectangle 139" width="34.285" height="0.585" transform="translate(489.418 368.003) rotate(-0.329)" fill="#a29b00"/>
      </g>
      <path id="Path_1279" data-name="Path 1279" d="M521.237,350.057s-2.312,4.887.53,7.5l-38.208.122.082-7.019Z" fill="#fff"/>
      <path id="Path_1280" data-name="Path 1280" d="M522.293,347.322l.018,3.119-38.67.222.038,6.628,38.67-.222.018,3.119-42.69.245v-.122l-.017-3-.038-6.628-.018-3.119Z" fill="#00f7e5"/>
      <g id="Group_406" data-name="Group 406">
        <rect id="Rectangle_140" data-name="Rectangle 140" width="34.285" height="0.585" transform="translate(484.963 351.727) rotate(-0.329)" fill="#162659"/>
      </g>
      <g id="Group_407" data-name="Group 407">
        <rect id="Rectangle_141" data-name="Rectangle 141" width="34.285" height="0.585" transform="translate(484.973 353.555) rotate(-0.329)" fill="#162659"/>
      </g>
      <g id="Group_408" data-name="Group 408">
        <rect id="Rectangle_142" data-name="Rectangle 142" width="34.285" height="0.585" transform="matrix(1, -0.006, 0.006, 1, 484.983, 355.309)" fill="#162659"/>
      </g>
      <path id="Path_1281" data-name="Path 1281" d="M526.653,359.773l.018,3.119-38.67.222.038,6.628,38.67-.222.018,3.119-42.69.245v-.122l-.017-3-.038-6.628-.018-3.119Z" fill="#859ce8"/>
      <path id="Path_1282" data-name="Path 1282" d="M523.609,364.274" fill="#fff" stroke="#231f20" stroke-miterlimit="10" stroke-width="0.236"/>
      <path id="Path_1283" data-name="Path 1283" d="M523.619,366.1" fill="#fff" stroke="#231f20" stroke-miterlimit="10" stroke-width="0.236"/>
      <path id="Path_1284" data-name="Path 1284" d="M523.629,367.856" fill="#fff" stroke="#231f20" stroke-miterlimit="10" stroke-width="0.236"/>
    </g>
    <g id="Group_416" data-name="Group 416">
      <path id="Path_1285" data-name="Path 1285" d="M531.867,326.9s-2.311,4.886.53,7.5l-38.207.122.081-7.019Z" fill="#fff"/>
      <path id="Path_1286" data-name="Path 1286" d="M532.306,301.559s-2.311,4.887.531,7.5l-38.208.122.082-7.018Z" fill="#fff"/>
      <path id="Path_1287" data-name="Path 1287" d="M533.363,298.824l.018,3.119-38.67.222.038,6.628,38.67-.222.018,3.119-42.691.245v-.122l-.017-3-.038-6.628-.018-3.119Z" fill="#4f64b1"/>
      <g id="Group_410" data-name="Group 410">
        <line id="Line_21" data-name="Line 21" x1="34.284" y2="0.197" transform="translate(496.034 303.325)" fill="#cae0ff"/>
        <rect id="Rectangle_143" data-name="Rectangle 143" width="34.285" height="0.585" transform="matrix(1, -0.006, 0.006, 1, 496.033, 303.229)" fill="#162659"/>
      </g>
      <g id="Group_411" data-name="Group 411">
        <line id="Line_22" data-name="Line 22" x1="34.284" y2="0.197" transform="translate(496.045 305.152)" fill="#cae0ff"/>
        <rect id="Rectangle_144" data-name="Rectangle 144" width="34.285" height="0.585" transform="translate(496.043 305.057) rotate(-0.329)" fill="#162659"/>
      </g>
      <g id="Group_412" data-name="Group 412">
        <line id="Line_23" data-name="Line 23" x1="34.284" y2="0.197" transform="translate(496.055 306.907)" fill="#cae0ff"/>
        <rect id="Rectangle_145" data-name="Rectangle 145" width="34.285" height="0.585" transform="translate(496.053 306.811) rotate(-0.329)" fill="#162659"/>
        <rect id="Rectangle_146" data-name="Rectangle 146" width="34.285" height="0.585" transform="translate(495.668 328.817) rotate(-0.329)" fill="#a29b00"/>
        <rect id="Rectangle_147" data-name="Rectangle 147" width="34.285" height="0.585" transform="translate(495.678 330.645) rotate(-0.329)" fill="#a29b00"/>
        <rect id="Rectangle_148" data-name="Rectangle 148" width="34.285" height="0.585" transform="translate(495.688 332.399) rotate(-0.329)" fill="#a29b00"/>
      </g>
      <path id="Path_1288" data-name="Path 1288" d="M527.507,314.453s-2.311,4.886.53,7.5l-38.207.122.081-7.019Z" fill="#fff"/>
      <path id="Path_1289" data-name="Path 1289" d="M528.563,311.717l.018,3.119-38.67.222.038,6.628,38.67-.222.018,3.119-42.691.245v-.122l-.017-3-.038-6.628-.018-3.119Z" fill="#fb9844"/>
      <g id="Group_413" data-name="Group 413">
        <rect id="Rectangle_149" data-name="Rectangle 149" width="34.285" height="0.585" transform="translate(491.233 316.123) rotate(-0.329)" fill="#162659"/>
      </g>
      <g id="Group_414" data-name="Group 414">
        <rect id="Rectangle_150" data-name="Rectangle 150" width="34.285" height="0.585" transform="translate(491.243 317.95) rotate(-0.329)" fill="#162659"/>
      </g>
      <g id="Group_415" data-name="Group 415">
        <rect id="Rectangle_151" data-name="Rectangle 151" width="34.285" height="0.585" transform="translate(491.253 319.705) rotate(-0.329)" fill="#162659"/>
      </g>
      <path id="Path_1290" data-name="Path 1290" d="M532.924,324.168l.018,3.119-38.67.222.038,6.628,38.67-.222.018,3.119-42.691.245v-.122l-.017-3-.038-6.628-.018-3.119Z" fill="#2f3655"/>
      <path id="Path_1291" data-name="Path 1291" d="M529.879,328.67" fill="#fff" stroke="#231f20" stroke-miterlimit="10" stroke-width="0.236"/>
      <path id="Path_1292" data-name="Path 1292" d="M529.889,330.5" fill="#fff" stroke="#231f20" stroke-miterlimit="10" stroke-width="0.236"/>
      <path id="Path_1293" data-name="Path 1293" d="M529.9,332.252" fill="#fff" stroke="#231f20" stroke-miterlimit="10" stroke-width="0.236"/>
    </g>
    <g id="Group_442" data-name="Group 442">
      <g id="Group_417" data-name="Group 417">
        <path id="Path_1294" data-name="Path 1294" d="M205.624,373.726,116.4,362.138c-6.548-.851-3.942-20.917,2.606-20.066L208.23,353.66Z" fill="#662d91"/>
        <path id="Path_1295" data-name="Path 1295" d="M205.89,371.679,120.738,360.62c-6.25-.811-4.257-16.16,1.993-15.348l85.152,11.059Z" fill="#eff4f4"/>
        <path id="Path_1296" data-name="Path 1296" d="M206.421,358.666,122.34,347.747a.74.74,0,0,1-.636-.825h0a.739.739,0,0,1,.825-.636l84.082,10.92a.738.738,0,0,1,.635.825h0A.737.737,0,0,1,206.421,358.666Z" fill="#ccc"/>
        <path id="Path_1297" data-name="Path 1297" d="M206.041,361.59,121.96,350.671a.739.739,0,0,1-.636-.826h0a.74.74,0,0,1,.825-.635l84.082,10.92a.738.738,0,0,1,.635.825h0A.738.738,0,0,1,206.041,361.59Z" fill="#ccc"/>
        <path id="Path_1298" data-name="Path 1298" d="M205.661,364.514l-84.081-10.92a.737.737,0,0,1-.635-.824h0a.738.738,0,0,1,.825-.636l84.081,10.92a.738.738,0,0,1,.636.825h0A.74.74,0,0,1,205.661,364.514Z" fill="#ccc"/>
        <path id="Path_1299" data-name="Path 1299" d="M205.282,367.438,121.2,356.519a.74.74,0,0,1-.635-.826h0a.738.738,0,0,1,.825-.635l84.081,10.92a.738.738,0,0,1,.636.825h0A.739.739,0,0,1,205.282,367.438Z" fill="#ccc"/>
        <path id="Path_1300" data-name="Path 1300" d="M204.9,370.362l-84.081-10.92a.738.738,0,0,1-.636-.825h0a.739.739,0,0,1,.825-.635l84.082,10.92a.738.738,0,0,1,.635.825h0A.738.738,0,0,1,204.9,370.362Z" fill="#ccc"/>
      </g>
      <g id="Group_418" data-name="Group 418">
        <path id="Path_1301" data-name="Path 1301" d="M146.882,327.353l72.854,9.016c5.348.662,3.32,17.046-2.027,16.384l-72.854-9.016Z" fill="#fc6b76"/>
        <path id="Path_1302" data-name="Path 1302" d="M146.675,329.024l69.529,8.6c5.1.632,3.552,13.164-1.551,12.532l-69.529-8.6Z" fill="#eff4f4"/>
        <path id="Path_1303" data-name="Path 1303" d="M146.306,339.643l68.654,8.5a.6.6,0,0,1,.522.67h0a.6.6,0,0,1-.67.523l-68.654-8.5a.6.6,0,0,1-.522-.67h0A.6.6,0,0,1,146.306,339.643Z" fill="#ccc"/>
        <path id="Path_1304" data-name="Path 1304" d="M146.6,337.256l68.654,8.5a.6.6,0,0,1,.523.67h0a.6.6,0,0,1-.67.522l-68.654-8.5a.6.6,0,0,1-.523-.67h0A.6.6,0,0,1,146.6,337.256Z" fill="#ccc"/>
        <path id="Path_1305" data-name="Path 1305" d="M146.9,334.869l68.654,8.5a.6.6,0,0,1,.522.67h0a.6.6,0,0,1-.67.523l-68.654-8.5a.6.6,0,0,1-.522-.67h0A.6.6,0,0,1,146.9,334.869Z" fill="#ccc"/>
        <path id="Path_1306" data-name="Path 1306" d="M147.192,332.481l68.654,8.5a.6.6,0,0,1,.523.67h0a.6.6,0,0,1-.67.523l-68.654-8.5a.6.6,0,0,1-.523-.67h0A.6.6,0,0,1,147.192,332.481Z" fill="#ccc"/>
        <path id="Path_1307" data-name="Path 1307" d="M147.488,330.094l68.654,8.5a.6.6,0,0,1,.522.67h0a.6.6,0,0,1-.67.522l-68.654-8.5a.6.6,0,0,1-.522-.67h0A.6.6,0,0,1,147.488,330.094Z" fill="#ccc"/>
      </g>
      <g id="Group_419" data-name="Group 419">
        <path id="Path_1308" data-name="Path 1308" d="M137.678,380.974l73.079-6.968c5.363-.512,6.931,15.923,1.567,16.434l-73.079,6.969Z" fill="#fc6b76"/>
        <path id="Path_1309" data-name="Path 1309" d="M137.838,382.65,207.581,376c5.118-.488,6.317,12.083,1.2,12.571l-69.742,6.65Z" fill="#eff4f4"/>
        <path id="Path_1310" data-name="Path 1310" d="M139.776,393.1l68.866-6.567a.6.6,0,0,1,.655.541h0a.6.6,0,0,1-.541.655l-68.866,6.567a.6.6,0,0,1-.655-.541h0A.6.6,0,0,1,139.776,393.1Z" fill="#ccc"/>
        <path id="Path_1311" data-name="Path 1311" d="M139.548,390.7l68.865-6.566a.6.6,0,0,1,.655.54h0a.6.6,0,0,1-.541.656L139.662,391.9a.6.6,0,0,1-.655-.541h0A.6.6,0,0,1,139.548,390.7Z" fill="#ccc"/>
        <path id="Path_1312" data-name="Path 1312" d="M139.319,388.308l68.866-6.566a.6.6,0,0,1,.655.541h0a.6.6,0,0,1-.541.655l-68.866,6.567a.6.6,0,0,1-.655-.541h0A.6.6,0,0,1,139.319,388.308Z" fill="#ccc"/>
        <path id="Path_1313" data-name="Path 1313" d="M139.091,385.914l68.866-6.567a.6.6,0,0,1,.655.541h0a.6.6,0,0,1-.542.655l-68.865,6.567a.6.6,0,0,1-.655-.541h0A.6.6,0,0,1,139.091,385.914Z" fill="#ccc"/>
        <path id="Path_1314" data-name="Path 1314" d="M138.863,383.519l68.865-6.567a.6.6,0,0,1,.655.541h0a.6.6,0,0,1-.541.655l-68.865,6.567a.6.6,0,0,1-.655-.541h0A.6.6,0,0,1,138.863,383.519Z" fill="#ccc"/>
      </g>
      <g id="Group_440" data-name="Group 440">
        <path id="Path_1315" data-name="Path 1315" d="M172.609,356.711l1.213.111s8.829-13.854,23.555-21.925a4.559,4.559,0,0,0,3.728-.537l-1.883-1.921-2.352-.213s-10.011,7.947-13.608,11.962-9.281,9.749-9.281,9.749Z" fill="#ba9bc9"/>
        <path id="Path_1316" data-name="Path 1316" d="M224.016,306.311l.086,1.215s-14.025,8.554-22.386,23.117a4.561,4.561,0,0,1-.611,3.717l-1.883-1.921-.166-2.356s8.143-9.851,12.228-13.368,9.931-9.086,9.931-9.086Z" fill="#ba9bc9"/>
        <path id="Path_1317" data-name="Path 1317" d="M168.139,354.272l1.364,1.392.53-.52,1.234,1.259.53-.52.812.828s6.834-11.118,25.194-23.4l-2.152-4.513-9.795,5.182Z" fill="#fff"/>
        <path id="Path_1318" data-name="Path 1318" d="M221.341,302.113l1.364,1.391-.53.519,1.234,1.259-.53.52.812.828s-11.251,6.613-23.894,24.725l-4.471-2.24,5.376-9.69Z" fill="#fff"/>
        <path id="Rectangle_152" data-name="Rectangle 152" d="M2.015,0h.818A2.014,2.014,0,0,1,4.847,2.014V8.747a2.014,2.014,0,0,1-2.014,2.014H2.015A2.015,2.015,0,0,1,0,8.747V2.015A2.015,2.015,0,0,1,2.015,0Z" transform="translate(191.114 327.631) rotate(-44.435)" fill="#fff"/>
        <path id="Path_1319" data-name="Path 1319" d="M222.712,302.265A133.81,133.81,0,0,0,195.651,328.8l-39.815-40.61A63.867,63.867,0,0,1,182.9,261.655Z" fill="#fff"/>
        <path id="Path_1320" data-name="Path 1320" d="M168.59,355.328A121.489,121.489,0,0,1,195.651,328.8l-39.815-40.61a63.857,63.857,0,0,0-27.061,26.531Z" fill="#eff4f4"/>
        <g id="Group_420" data-name="Group 420">
          <path id="Path_1321" data-name="Path 1321" d="M156.289,293.816a.547.547,0,0,1-.11.085c-15.792,9.379-22.57,22.051-22.637,22.178a.58.58,0,0,1-1.027-.539c.068-.13,6.982-13.08,23.072-22.636a.58.58,0,0,1,.7.912Z" fill="#ccc"/>
        </g>
        <g id="Group_421" data-name="Group 421">
          <path id="Path_1322" data-name="Path 1322" d="M160.064,297.666a.547.547,0,0,1-.11.085c-15.792,9.379-22.571,22.051-22.638,22.178a.58.58,0,0,1-1.027-.539c.068-.129,6.983-13.08,23.073-22.636a.58.58,0,0,1,.7.912Z" fill="#ccc"/>
        </g>
        <g id="Group_422" data-name="Group 422">
          <path id="Path_1323" data-name="Path 1323" d="M163.839,301.516a.583.583,0,0,1-.111.085c-15.792,9.379-22.57,22.051-22.637,22.178a.58.58,0,1,1-1.027-.539c.068-.129,6.983-13.08,23.072-22.636a.58.58,0,0,1,.7.912Z" fill="#ccc"/>
        </g>
        <g id="Group_423" data-name="Group 423">
          <path id="Path_1324" data-name="Path 1324" d="M167.613,305.367a.581.581,0,0,1-.11.084c-15.792,9.379-22.57,22.051-22.637,22.178a.58.58,0,0,1-1.027-.538c.068-.13,6.982-13.081,23.072-22.637a.58.58,0,0,1,.7.913Z" fill="#ccc"/>
        </g>
        <g id="Group_424" data-name="Group 424">
          <path id="Path_1325" data-name="Path 1325" d="M171.388,309.217a.615.615,0,0,1-.11.084c-15.792,9.379-22.571,22.051-22.638,22.178a.58.58,0,0,1-1.027-.538c.068-.13,6.983-13.081,23.072-22.637a.58.58,0,0,1,.7.913Z" fill="#ccc"/>
        </g>
        <g id="Group_425" data-name="Group 425">
          <path id="Path_1326" data-name="Path 1326" d="M175.162,313.067a.58.58,0,0,1-.11.084c-15.792,9.38-22.57,22.051-22.637,22.178a.58.58,0,0,1-1.027-.538c.068-.13,6.982-13.081,23.072-22.637a.58.58,0,0,1,.7.913Z" fill="#ccc"/>
        </g>
        <g id="Group_426" data-name="Group 426">
          <path id="Path_1327" data-name="Path 1327" d="M178.937,316.917a.582.582,0,0,1-.11.084c-15.792,9.379-22.571,22.051-22.637,22.178a.58.58,0,0,1-1.028-.538c.068-.13,6.983-13.081,23.073-22.637a.58.58,0,0,1,.7.913Z" fill="#ccc"/>
        </g>
        <g id="Group_427" data-name="Group 427">
          <path id="Path_1328" data-name="Path 1328" d="M182.712,320.767a.623.623,0,0,1-.111.084c-15.792,9.379-22.57,22.051-22.637,22.178a.58.58,0,0,1-1.027-.538c.068-.13,6.983-13.081,23.072-22.637a.58.58,0,0,1,.7.913Z" fill="#ccc"/>
        </g>
        <g id="Group_428" data-name="Group 428">
          <path id="Path_1329" data-name="Path 1329" d="M186.486,324.617a.58.58,0,0,1-.11.084c-15.792,9.38-22.57,22.051-22.637,22.178a.58.58,0,0,1-1.027-.538c.068-.13,6.982-13.081,23.072-22.637a.58.58,0,0,1,.7.913Z" fill="#ccc"/>
        </g>
        <g id="Group_429" data-name="Group 429">
          <path id="Path_1330" data-name="Path 1330" d="M190.261,328.467a.615.615,0,0,1-.11.084c-15.792,9.38-22.571,22.051-22.638,22.178a.58.58,0,0,1-1.027-.538c.068-.13,6.983-13.081,23.073-22.637a.58.58,0,0,1,.7.913Z" fill="#ccc"/>
        </g>
        <g id="Group_430" data-name="Group 430">
          <path id="Path_1331" data-name="Path 1331" d="M161.456,288.751a.548.548,0,0,0,.087-.109c9.69-15.6,22.493-22.129,22.621-22.194a.58.58,0,1,0-.518-1.037c-.131.065-13.216,6.722-23.088,22.62a.58.58,0,0,0,.9.72Z" fill="#ccc"/>
        </g>
        <g id="Group_431" data-name="Group 431">
          <path id="Path_1332" data-name="Path 1332" d="M165.231,292.6a.583.583,0,0,0,.086-.109c9.69-15.6,22.494-22.129,22.622-22.194a.58.58,0,0,0-.518-1.037c-.132.065-13.216,6.722-23.089,22.62a.58.58,0,0,0,.9.72Z" fill="#ccc"/>
        </g>
        <g id="Group_432" data-name="Group 432">
          <path id="Path_1333" data-name="Path 1333" d="M169.005,296.451a.548.548,0,0,0,.087-.109c9.69-15.6,22.493-22.129,22.621-22.194a.58.58,0,1,0-.518-1.037c-.131.065-13.216,6.722-23.088,22.62a.58.58,0,0,0,.9.72Z" fill="#ccc"/>
        </g>
        <g id="Group_433" data-name="Group 433">
          <path id="Path_1334" data-name="Path 1334" d="M172.78,300.3a.548.548,0,0,0,.087-.109c9.69-15.6,22.493-22.129,22.621-22.194a.58.58,0,0,0-.518-1.037c-.131.065-13.216,6.722-23.088,22.62a.58.58,0,0,0,.9.72Z" fill="#ccc"/>
        </g>
        <g id="Group_434" data-name="Group 434">
          <path id="Path_1335" data-name="Path 1335" d="M176.555,304.151a.582.582,0,0,0,.086-.109c9.69-15.6,22.494-22.129,22.621-22.194a.579.579,0,1,0-.517-1.037c-.132.065-13.216,6.722-23.089,22.62a.58.58,0,0,0,.9.72Z" fill="#ccc"/>
        </g>
        <g id="Group_435" data-name="Group 435">
          <path id="Path_1336" data-name="Path 1336" d="M180.329,308a.548.548,0,0,0,.087-.109c9.69-15.6,22.493-22.129,22.621-22.194a.58.58,0,1,0-.518-1.037c-.131.065-13.216,6.722-23.088,22.62a.58.58,0,0,0,.9.72Z" fill="#ccc"/>
        </g>
        <g id="Group_436" data-name="Group 436">
          <path id="Path_1337" data-name="Path 1337" d="M184.1,311.851a.665.665,0,0,0,.087-.108c9.689-15.6,22.493-22.13,22.621-22.2a.58.58,0,0,0-.518-1.037c-.132.065-13.216,6.722-23.088,22.62a.58.58,0,0,0,.9.72Z" fill="#ccc"/>
        </g>
        <g id="Group_437" data-name="Group 437">
          <path id="Path_1338" data-name="Path 1338" d="M187.878,315.7a.571.571,0,0,0,.087-.108c9.69-15.6,22.493-22.13,22.621-22.195a.58.58,0,1,0-.518-1.037c-.131.065-13.216,6.722-23.088,22.62a.58.58,0,0,0,.9.72Z" fill="#ccc"/>
        </g>
        <g id="Group_438" data-name="Group 438">
          <path id="Path_1339" data-name="Path 1339" d="M191.653,319.551a.586.586,0,0,0,.087-.109c9.69-15.6,22.493-22.129,22.621-22.194a.58.58,0,0,0-.518-1.037c-.131.065-13.216,6.722-23.088,22.62a.58.58,0,0,0,.9.72Z" fill="#ccc"/>
        </g>
        <g id="Group_439" data-name="Group 439">
          <path id="Path_1340" data-name="Path 1340" d="M195.428,323.4a.609.609,0,0,0,.086-.108c9.69-15.6,22.494-22.13,22.622-22.2a.58.58,0,0,0-.518-1.037c-.132.065-13.216,6.722-23.089,22.62a.58.58,0,0,0,.9.72Z" fill="#ccc"/>
        </g>
      </g>
      <g id="Group_441" data-name="Group 441">
        <path id="Path_1341" data-name="Path 1341" d="M154.706,305.448l6.248,10.731,1.62-12.311Z" fill="#fbb03b"/>
        <rect id="Rectangle_153" data-name="Rectangle 153" width="7.882" height="13.041" rx="2.128" transform="translate(141.472 239.551) rotate(-11.355)" fill="#fc6b76"/>
        <rect id="Rectangle_154" data-name="Rectangle 154" width="8.025" height="54.483" transform="matrix(0.98, -0.197, 0.197, 0.98, 143.979, 252.032)" fill="#fcee21"/>
        <rect id="Rectangle_155" data-name="Rectangle 155" width="9.888" height="13.041" transform="matrix(0.98, -0.197, 0.197, 0.98, 141.448, 244.526)" fill="#fbb03b"/>
      </g>
    </g>
    <g id="Group_451" data-name="Group 451">
      <rect id="Rectangle_156" data-name="Rectangle 156" width="55.029" height="57.26" transform="translate(412.563 284.212)" fill="#4f64b1"/>
      <path id="Path_1342" data-name="Path 1342" d="M452.111,415.328,451,427.04l5.3.837,3.625-11.015Z" fill="#fed4d5"/>
      <path id="Path_1343" data-name="Path 1343" d="M499.936,251.682s-13.2,22.681-17.662,23.61-14.686-7.436-14.686-7.436l2.23-52.426s10.039,1.115,11.9,7.622.557,34.765.557,34.765l15.059-8.924Z" fill="#2c5099"/>
      <rect id="Rectangle_157" data-name="Rectangle 157" width="68.786" height="7.436" transform="translate(410.698 361.551)" fill="#d87a1d"/>
      <rect id="Rectangle_158" data-name="Rectangle 158" width="7.065" height="81.056" transform="translate(476.139 341.104)" fill="#f7931e"/>
      <rect id="Rectangle_159" data-name="Rectangle 159" width="7.065" height="81.056" transform="translate(409.209 341.097)" fill="#f7931e"/>
      <path id="Path_1344" data-name="Path 1344" d="M476.475,293.139a10.182,10.182,0,0,0,.78-3.9V276.594a10.225,10.225,0,0,0-10.225-10.225h-55.4A10.225,10.225,0,0,0,401.4,276.594v12.641a10.182,10.182,0,0,0,.78,3.9Z" fill="#f7931e"/>
      <path id="Path_1345" data-name="Path 1345" d="M490.6,345.94a8.645,8.645,0,0,0,1.162-4.276,8.738,8.738,0,0,0-8.737-8.739l-72.5-.008a8.738,8.738,0,0,0-8.739,8.736,8.644,8.644,0,0,0,1.161,4.276Z" fill="#f7931e"/>
      <path id="Path_1346" data-name="Path 1346" d="M416.88,215.6s5.811-3.418,9.715-3.418,16.024-1.942,16.024-1.942l17.439,1.942s19.242,6.135,20.078,8.644-2.788,34.579-4.74,39.32-3.347,26.492-3.347,26.492l-62.186,25.655s6.693-31.79,8.087-39.877S416.88,215.6,416.88,215.6Z" fill="#4e6fd8"/>
      <g id="Group_443" data-name="Group 443" opacity="0.25" style="mix-blend-mode: overlay;isolation: isolate">
        <path id="Path_1347" data-name="Path 1347" d="M453.89,228.846s14.615,13.409,25,10.079c1-8.663,1.649-16.883,1.242-18.1-.836-2.509-20.078-8.644-20.078-8.644l-14.5-1.116-.425.031Z" fill="#231f20"/>
        <path id="Path_1348" data-name="Path 1348" d="M429.848,285.7c3.347-4.647,24.168-17.1,24.168-17.1l5.02-22.681s-20.264,7.436-23.8-.186,2.23-18.777-6.879-22.867a36.684,36.684,0,0,1-6.944-4.233c-.532,11.233-2.295,46.98-3.467,53.778-1.394,8.087-8.087,39.877-8.087,39.877l31.747-13.1C435.2,294.553,427.894,288.417,429.848,285.7Z" fill="#231f20"/>
      </g>
      <path id="Path_1349" data-name="Path 1349" d="M475.117,312.846s9.481,14.78,8.366,27.607-22.867,78.639-22.867,78.639l-9.76-2.231s10.6-71.109,4.462-77.244-27.608-10.876-27.608-10.876S448.067,295.835,475.117,312.846Z" fill="#2f3655"/>
      <g id="Group_450" data-name="Group 450">
        <path id="Path_1350" data-name="Path 1350" d="M442.188,279.568s2.231,4.648-.465,7.158l36.438-.093-.116-6.693Z" fill="#fff"/>
        <path id="Path_1351" data-name="Path 1351" d="M441.63,255.4s2.231,4.648-.465,7.158l36.438-.093-.116-6.693Z" fill="#fff"/>
        <path id="Path_1352" data-name="Path 1352" d="M440.608,252.8v2.974h36.88v6.321h-36.88v2.975h40.714V252.8Z" fill="#4f64b1"/>
        <g id="Group_444" data-name="Group 444">
          <line id="Line_24" data-name="Line 24" x2="32.697" transform="translate(443.536 257.073)" fill="#cae0ff"/>
          <rect id="Rectangle_160" data-name="Rectangle 160" width="32.697" height="0.558" transform="translate(443.536 256.794)" fill="#162659"/>
        </g>
        <g id="Group_445" data-name="Group 445">
          <line id="Line_25" data-name="Line 25" x2="32.697" transform="translate(443.536 258.816)" fill="#cae0ff"/>
          <rect id="Rectangle_161" data-name="Rectangle 161" width="32.697" height="0.558" transform="translate(443.536 258.537)" fill="#162659"/>
        </g>
        <g id="Group_446" data-name="Group 446">
          <line id="Line_26" data-name="Line 26" x2="32.697" transform="translate(443.536 260.489)" fill="#cae0ff"/>
          <rect id="Rectangle_162" data-name="Rectangle 162" width="32.697" height="0.558" transform="translate(443.536 260.211)" fill="#162659"/>
          <rect id="Rectangle_163" data-name="Rectangle 163" width="32.697" height="0.558" transform="translate(444.024 281.195)" fill="#a29b00"/>
          <rect id="Rectangle_164" data-name="Rectangle 164" width="32.697" height="0.558" transform="translate(444.024 282.938)" fill="#a29b00"/>
          <rect id="Rectangle_165" data-name="Rectangle 165" width="32.697" height="0.558" transform="translate(444.024 284.611)" fill="#a29b00"/>
        </g>
        <path id="Path_1353" data-name="Path 1353" d="M446.278,267.67s2.231,4.648-.465,7.158l36.438-.093-.116-6.693Z" fill="#fff"/>
        <path id="Path_1354" data-name="Path 1354" d="M445.255,265.067v2.974h36.879v6.321H445.255v2.975h40.714v-12.27Z" fill="#00f7e5"/>
        <g id="Group_447" data-name="Group 447">
          <rect id="Rectangle_166" data-name="Rectangle 166" width="32.697" height="0.558" transform="translate(448.184 269.064)" fill="#162659"/>
        </g>
        <g id="Group_448" data-name="Group 448">
          <rect id="Rectangle_167" data-name="Rectangle 167" width="32.697" height="0.558" transform="translate(448.184 270.807)" fill="#162659"/>
        </g>
        <g id="Group_449" data-name="Group 449">
          <rect id="Rectangle_168" data-name="Rectangle 168" width="32.697" height="0.558" transform="translate(448.184 272.48)" fill="#162659"/>
        </g>
        <path id="Path_1355" data-name="Path 1355" d="M441.165,276.966v2.974h36.879v6.321H441.165v2.975h40.714v-12.27Z" fill="#859ce8"/>
        <path id="Path_1356" data-name="Path 1356" d="M444.093,281.241" fill="#fff" stroke="#231f20" stroke-miterlimit="10" stroke-width="0.261"/>
        <path id="Path_1357" data-name="Path 1357" d="M444.093,282.984" fill="#fff" stroke="#231f20" stroke-miterlimit="10" stroke-width="0.261"/>
        <path id="Path_1358" data-name="Path 1358" d="M444.093,284.657" fill="#fff" stroke="#231f20" stroke-miterlimit="10" stroke-width="0.261"/>
      </g>
      <path id="Path_1359" data-name="Path 1359" d="M528.658,382.84l8.645,11.991s5.02-2.231,4.741-4.183-8.645-11.991-8.645-11.991Z" fill="#fed4d5"/>
      <path id="Path_1360" data-name="Path 1360" d="M535.212,393.158s6.135-1.115,6.553-3.9-.279-3.625,1.673-2.789,10.457,1.395,15.2.7.418,2.091-.558,2.928S538,398.875,538,398.875,533.957,397.759,535.212,393.158Z" fill="#2f3655"/>
      <path id="Path_1361" data-name="Path 1361" d="M503.282,233.742l2.788,2.417s-13.571,17.289-14.314,17.475-21.38-1.859-21.38-1.859l.744-15.058,2.974-4.462s16.546,6.692,16.546,6.135S503.282,233.742,503.282,233.742Z" fill="#fff"/>
      <path id="Path_1362" data-name="Path 1362" d="M492.871,241.364l-21.937-6.321-14.5,22.681,22.309,6.321,15.43-6.321L507,235.973Z" fill="#859ce8"/>
      <path id="Path_1363" data-name="Path 1363" d="M457.96,431.139c-.539,2-3.388,2.974-6.362,2.172s-4.948-3.073-4.408-5.075,3.759-4.275,6.733-3.474S458.5,429.137,457.96,431.139Z" fill="#2f3655"/>
      <path id="Path_1364" data-name="Path 1364" d="M462.847,245.64s1.115-6.135,5.856-6.972,10.6,0,9.2,3.347-8.087,2.231-8.087,2.231-5.019,6.692-6.971,5.3S462.847,245.64,462.847,245.64Z" fill="#fed4d5"/>
      <path id="Path_1365" data-name="Path 1365" d="M417.95,214.965s7.808-5.577,11.712,3.9-1.952,40.993-1.952,40.993l36.252-18.591,3.811,6.228s-40.9,48.615-57.073,30.489S409.027,218.869,417.95,214.965Z" fill="#4e6fd8"/>
      <path id="Path_1366" data-name="Path 1366" d="M474.838,191.82l1.3-4.09s-3.9-1.674-5.205-3.9-4.09-6.879-10.225-7.065-12.642,9.295-10.225,16.732,11.526,1.859,11.526,1.859S473.537,197.583,474.838,191.82Z" fill="#2f3655"/>
      <path id="Path_1367" data-name="Path 1367" d="M452.25,196.839l-11.991,13.943s4.462,19.8,13.385,18.126,3.9-9.76,3.9-9.76l5.578-8.366Z" fill="#fed4d5"/>
      <path id="Path_1368" data-name="Path 1368" d="M559.542,429.038" fill="#fff" stroke="#231f20" stroke-miterlimit="10" stroke-width="0.261"/>
      <path id="Path_1369" data-name="Path 1369" d="M492.871,241.364l-.058-.017L479.1,263.9l15.076-6.176L507,235.973Z" fill="#4f64b1"/>
      <path id="Path_1370" data-name="Path 1370" d="M455.771,417.985c2.016-13.592,6.27-40.869,10.329-57.919,3.285-13.8,9.908-26.651,14.81-35.147a67.347,67.347,0,0,0-5.793-12.073c-27.05-17.011-47.407,15.895-47.407,15.895s21.473,4.741,27.608,10.876-4.462,77.244-4.462,77.244Z" fill="#231f20" opacity="0.46" style="mix-blend-mode: overlay;isolation: isolate"/>
      <path id="Path_1371" data-name="Path 1371" d="M463.126,210.782,452.25,196.839l-3.06,3.559c.093,6.8.753,22.312,4.7,28.448,8.555-1.784,3.658-9.7,3.658-9.7Z" fill="#231f20" style="mix-blend-mode: overlay;isolation: isolate"/>
      <path id="Path_1372" data-name="Path 1372" d="M504.025,245.919s-1.673-6.507-5.2-3.9,0,7.436,0,7.436l-2.045,3.532S504.211,253.169,504.025,245.919Z" fill="#fed4d5"/>
      <path id="Path_1373" data-name="Path 1373" d="M451.971,198.791s-4.461-7.25-.836-8.645,4.461,5.02,4.461,5.02,5.02-2.231,5.3-6.972c0,0,9.76,9.482,13.943,3.626,0,0-2.51,23.424-12.27,21.472S451.971,205.484,451.971,198.791Z" fill="#fed4d5"/>
      <path id="Path_1374" data-name="Path 1374" d="M463.683,201.58c0,.77-1.248,1.394-2.788,1.394s-2.789-.624-2.789-1.394,1.249-1.4,2.789-1.4S463.683,200.81,463.683,201.58Z" fill="#231f20" style="mix-blend-mode: overlay;isolation: isolate"/>
      <path id="Path_1375" data-name="Path 1375" d="M472.328,201.789c0,.655-.749,1.185-1.673,1.185s-1.673-.53-1.673-1.185.749-1.185,1.673-1.185S472.328,201.134,472.328,201.789Z" fill="#231f20" style="mix-blend-mode: overlay;isolation: isolate"/>
      <path id="Path_1376" data-name="Path 1376" d="M418.322,277.523c-19.928-3.43-3.407-51.624.9-63.275a9.106,9.106,0,0,0-1.27.717c-8.923,3.9-23.424,44.9-7.25,63.023,5.617,6.295,14.162,4.443,22.922-.648A43.974,43.974,0,0,1,418.322,277.523Z" fill="#231f20" opacity="0.46" style="mix-blend-mode: overlay;isolation: isolate"/>
      <path id="Path_1377" data-name="Path 1377" d="M537.114,381.64s-56.877-98.166-69.89-100.027-43.5,4.456-55.775,24.161,2.97,33.836,18.215,33.094,35.7-13.753,35.7-13.753l64.688,61.358Z" fill="#2f3655"/>
      <path id="Path_1378" data-name="Path 1378" d="M466.472,314.519s-32.906,15.337-43.5,13.943c-7.592-1-10.746-14.449-11.925-22-11.491,19.341,3.554,33.136,18.619,32.4,15.244-.742,35.7-13.753,35.7-13.753l64.689,61.358,3.879-2.654Z" fill="#231f20" opacity="0.46" style="mix-blend-mode: overlay;isolation: isolate"/>
    </g>
    <g id="Group_467" data-name="Group 467">
      <g id="Group_458" data-name="Group 458">
        <path id="Path_1379" data-name="Path 1379" d="M212.287,407.762s3.531,7.4-.766,11.383l57.959-.014-.16-10.646Z" fill="#fff"/>
        <path id="Path_1380" data-name="Path 1380" d="M211.489,369.318s3.531,7.4-.766,11.383l57.959-.014-.161-10.646Z" fill="#fff"/>
        <path id="Path_1381" data-name="Path 1381" d="M209.872,365.174l-.011,4.731,58.661.136L268.5,380.1l-58.661-.136-.011,4.731,64.76.15v-.185l.01-4.547.023-10.054.011-4.731Z" fill="#4f64b1"/>
        <g id="Group_452" data-name="Group 452">
          <line id="Line_27" data-name="Line 27" x2="52.007" y2="0.12" transform="translate(214.513 371.986)" fill="#cae0ff"/>
          <rect id="Rectangle_169" data-name="Rectangle 169" width="0.887" height="52.007" transform="translate(214.512 372.43) rotate(-89.868)" fill="#162659"/>
        </g>
        <g id="Group_453" data-name="Group 453">
          <line id="Line_28" data-name="Line 28" x2="52.007" y2="0.12" transform="translate(214.507 374.758)" fill="#cae0ff"/>
          <rect id="Rectangle_170" data-name="Rectangle 170" width="0.887" height="52.007" transform="translate(214.506 375.202) rotate(-89.868)" fill="#162659"/>
        </g>
        <g id="Group_454" data-name="Group 454">
          <line id="Line_29" data-name="Line 29" x2="52.007" y2="0.12" transform="translate(214.501 377.42)" fill="#cae0ff"/>
          <rect id="Rectangle_171" data-name="Rectangle 171" width="0.887" height="52.007" transform="translate(214.5 377.863) rotate(-89.868)" fill="#162659"/>
          <rect id="Rectangle_172" data-name="Rectangle 172" width="0.887" height="52.007" transform="translate(215.199 411.243) rotate(-89.868)" fill="#a29b00"/>
          <rect id="Rectangle_173" data-name="Rectangle 173" width="0.887" height="52.007" transform="translate(215.193 414.015) rotate(-89.868)" fill="#a29b00"/>
          <rect id="Rectangle_174" data-name="Rectangle 174" width="0.887" height="52.007" transform="translate(215.186 416.677) rotate(-89.868)" fill="#a29b00"/>
        </g>
        <path id="Path_1382" data-name="Path 1382" d="M218.836,388.852s3.532,7.4-.765,11.383l57.958-.014-.16-10.646Z" fill="#fff"/>
        <path id="Path_1383" data-name="Path 1383" d="M217.219,384.708l-.011,4.731,58.661.136-.023,10.054-58.661-.135-.011,4.731,64.76.15v-.185l.01-4.547.023-10.054.011-4.731Z" fill="#f15a24"/>
        <g id="Group_455" data-name="Group 455">
          <rect id="Rectangle_175" data-name="Rectangle 175" width="0.887" height="52.007" transform="translate(221.861 391.963) rotate(-89.868)" fill="#162659"/>
        </g>
        <g id="Group_456" data-name="Group 456">
          <rect id="Rectangle_176" data-name="Rectangle 176" width="0.887" height="52.007" transform="translate(221.854 394.736) rotate(-89.868)" fill="#162659"/>
        </g>
        <g id="Group_457" data-name="Group 457">
          <rect id="Rectangle_177" data-name="Rectangle 177" width="0.887" height="52.007" transform="translate(221.848 397.397) rotate(-89.868)" fill="#162659"/>
        </g>
        <path id="Path_1384" data-name="Path 1384" d="M210.67,403.618l-.011,4.731,58.661.135-.023,10.054-58.661-.136-.011,4.731,64.76.15V423.1l.01-4.546.023-10.054.011-4.731Z" fill="#859ce8"/>
        <path id="Path_1385" data-name="Path 1385" d="M215.312,410.43" fill="#fff" stroke="#231f20" stroke-miterlimit="10" stroke-width="0.268"/>
        <path id="Path_1386" data-name="Path 1386" d="M215.3,413.2" fill="#fff" stroke="#231f20" stroke-miterlimit="10" stroke-width="0.268"/>
        <path id="Path_1387" data-name="Path 1387" d="M215.3,415.864" fill="#fff" stroke="#231f20" stroke-miterlimit="10" stroke-width="0.268"/>
      </g>
      <g id="Group_465" data-name="Group 465">
        <path id="Path_1388" data-name="Path 1388" d="M206.31,354.88s3.881,8.134-.841,12.511l63.7-.015-.176-11.7Z" fill="#fff"/>
        <path id="Path_1389" data-name="Path 1389" d="M205.433,312.627s3.881,8.134-.842,12.511l63.7-.016-.176-11.7Z" fill="#fff"/>
        <path id="Path_1390" data-name="Path 1390" d="M203.656,308.072l-.012,5.2,64.474.149-.026,11.051-64.474-.149-.012,5.2,71.177.165v-.2l.012-5,.025-11.051.012-5.2Z" fill="#4f64b1"/>
        <g id="Group_459" data-name="Group 459">
          <line id="Line_30" data-name="Line 30" x2="57.161" y2="0.132" transform="translate(208.757 315.559)" fill="#cae0ff"/>
          <rect id="Rectangle_178" data-name="Rectangle 178" width="0.975" height="57.161" transform="translate(208.756 316.047) rotate(-89.868)" fill="#162659"/>
        </g>
        <g id="Group_460" data-name="Group 460">
          <line id="Line_31" data-name="Line 31" x2="57.161" y2="0.132" transform="translate(208.75 318.606)" fill="#cae0ff"/>
          <rect id="Rectangle_179" data-name="Rectangle 179" width="0.975" height="57.161" transform="translate(208.749 319.094) rotate(-89.868)" fill="#162659"/>
        </g>
        <g id="Group_461" data-name="Group 461">
          <line id="Line_32" data-name="Line 32" x2="57.161" y2="0.132" transform="translate(208.744 321.531)" fill="#cae0ff"/>
          <rect id="Rectangle_180" data-name="Rectangle 180" width="0.975" height="57.161" transform="translate(208.742 322.019) rotate(-89.868)" fill="#162659"/>
          <rect id="Rectangle_181" data-name="Rectangle 181" width="0.975" height="57.161" transform="translate(209.511 358.706) rotate(-89.868)" fill="#a29b00"/>
          <rect id="Rectangle_182" data-name="Rectangle 182" width="0.975" height="57.161" transform="translate(209.504 361.753) rotate(-89.868)" fill="#a29b00"/>
          <rect id="Rectangle_183" data-name="Rectangle 183" width="0.975" height="57.161" transform="translate(209.497 364.678) rotate(-89.868)" fill="#a29b00"/>
        </g>
        <path id="Path_1391" data-name="Path 1391" d="M213.508,334.1s3.882,8.134-.841,12.511l63.7-.015-.176-11.7Z" fill="#fff"/>
        <path id="Path_1392" data-name="Path 1392" d="M211.731,329.542l-.012,5.2,64.474.149-.026,11.051-64.474-.149-.012,5.2,71.177.164v-.2l.012-5,.026-11.051.012-5.2Z" fill="#fb9844"/>
        <g id="Group_462" data-name="Group 462">
          <rect id="Rectangle_184" data-name="Rectangle 184" width="0.975" height="57.161" transform="translate(216.833 337.516) rotate(-89.868)" fill="#162659"/>
        </g>
        <g id="Group_463" data-name="Group 463">
          <rect id="Rectangle_185" data-name="Rectangle 185" width="0.975" height="57.161" transform="translate(216.826 340.563) rotate(-89.868)" fill="#162659"/>
        </g>
        <g id="Group_464" data-name="Group 464">
          <rect id="Rectangle_186" data-name="Rectangle 186" width="0.975" height="57.161" transform="translate(216.819 343.488) rotate(-89.868)" fill="#162659"/>
        </g>
        <path id="Path_1393" data-name="Path 1393" d="M204.533,350.326l-.012,5.2,64.474.149-.025,11.051-64.474-.149-.012,5.2,71.177.165v-.2l.012-5,.026-11.051.012-5.2Z" fill="#2f3655"/>
        <path id="Path_1394" data-name="Path 1394" d="M209.635,357.813" fill="#fff" stroke="#231f20" stroke-miterlimit="10" stroke-width="0.268"/>
        <path id="Path_1395" data-name="Path 1395" d="M209.628,360.86" fill="#fff" stroke="#231f20" stroke-miterlimit="10" stroke-width="0.268"/>
        <path id="Path_1396" data-name="Path 1396" d="M209.621,363.785" fill="#fff" stroke="#231f20" stroke-miterlimit="10" stroke-width="0.268"/>
      </g>
      <path id="Path_1397" data-name="Path 1397" d="M238.024,319.64s-8.486.2-9.092,5.859,1.616,18.991,6.061,16.163-.2-12.122,1.616-14.546a21.864,21.864,0,0,1,5.051-4.445Z" fill="#fed4d5"/>
      <path id="Path_1398" data-name="Path 1398" d="M238.933,192.209s3.485-4.849,7.576-2.121,7.728,16.667,14.849,18.031,1.818,9.849-3.485,9.243c0,0,3.788.606,2.879,4.091s-4.546,5-7.273,3.334c0,0,1.818,3.182-1.212,4.242s-8.637-1.06-8.637-1.06l-8.182.3s-7.122,4.545-9.243,1.515a5.312,5.312,0,0,1-.606-5.606s-3.031,3.03-5.607.606-.606-5.607,1.061-6.516c0,0-5.3,2.273-6.97-1.364s-.758-6.212,2.727-8.03,10.91-7.728,11.668-11.971S234.538,184.178,238.933,192.209Z" fill="#2f3655"/>
      <path id="Path_1399" data-name="Path 1399" d="M251.156,205.7c-5.859-8.082-4.243-11.516-6.97-11.213a5.662,5.662,0,0,0-4.041,2.929s-2.525-5.151-6.364-3.03-4.849,18.385-14.041,20.3c-2.579.539-4.561.865-6.1,1.064a10.491,10.491,0,0,0,.445,1.158c1.667,3.637,6.97,1.364,6.97,1.364-1.667.909-3.637,4.091-1.061,6.516s5.607-.606,5.607-.606a5.312,5.312,0,0,0,.606,5.606c2.121,3.03,9.243-1.515,9.243-1.515l8.182-.3s5.606,2.121,8.637,1.06,1.212-4.242,1.212-4.242c2.727,1.666,6.364.151,7.273-3.334s-2.879-4.091-2.879-4.091c3.757.429,7.491-3.7,6.831-6.629A12.524,12.524,0,0,1,251.156,205.7Z" fill="#231f20" style="mix-blend-mode: overlay;isolation: isolate"/>
      <rect id="Rectangle_187" data-name="Rectangle 187" width="32.931" height="58.387" rx="7.279" transform="translate(224.083 227.11)" fill="#e8863d"/>
      <path id="Path_1400" data-name="Path 1400" d="M246.711,226.908a16.466,16.466,0,0,0-16.466,16.466V249.9l5.152,6.654s2.121,1.061,8.031,4.7,2.273,6.061-1.515,7.122.909,3.334,6.061,5.606c4.244,1.873-8.473,5.183-13.088,6.292a16.456,16.456,0,0,0,28.291-11.444V243.374A16.466,16.466,0,0,0,246.711,226.908Z" fill="#231f20" opacity="0.41" style="mix-blend-mode: overlay;isolation: isolate"/>
      <path id="Path_1401" data-name="Path 1401" d="M290.754,271.759s-5.455,1.212-17.88,5.455-18.789,4.546-18.789,4.546l-20.759,1.363s-14.091-12.879-20.455-13.182-12.728,5.152-12.425,10,6.061,33.032,26.971,33.638,27.577,1.213,40.608-7.273S304.694,280.244,290.754,271.759Z" fill="#212638"/>
      <path id="Path_1402" data-name="Path 1402" d="M260.247,329.338s5.455,2.828,5.657,7.475-4.445,9.9-.2,11.112,10.91-15.759,7.879-17.577a86.346,86.346,0,0,0-10.1-4.444Z" fill="#fed4d5"/>
      <path id="Path_1403" data-name="Path 1403" d="M295.154,272.085c-14.948-9.564-58.949,47.252-58.949,47.252l3.334,5.758s4.968-2,12.012-5.329C260.215,306.055,278.994,278.8,295.154,272.085Z" fill="#231f20" opacity="0.58" style="mix-blend-mode: overlay;isolation: isolate"/>
      <path id="Path_1404" data-name="Path 1404" d="M230.346,231.959c.438-.466-7.273,3.232-11.111,12.93s-12.122,26.062-9.7,35.153,6.061,10.3,12.93,6.869S220.851,242.06,230.346,231.959Z" fill="#d67432"/>
      <path id="Path_1405" data-name="Path 1405" d="M199.537,272.668s2.424-8.788,12.121-6.667,56.367,61.519,56.367,61.519l-4.242,4.849S194.082,300.549,199.537,272.668Z" fill="#2f3655"/>
      <path id="Path_1406" data-name="Path 1406" d="M251.227,230.141c-.438-.466,7.273,3.232,11.112,12.929s12.122,26.063,9.7,35.154-6.061,10.3-12.93,6.869S260.722,240.242,251.227,230.141Z" fill="#d67432"/>
      <rect id="Rectangle_188" data-name="Rectangle 188" width="10.304" height="16.062" transform="translate(235.599 218.877)" fill="#f2b3bb"/>
      <g id="Group_466" data-name="Group 466">
        <path id="Path_1407" data-name="Path 1407" d="M270.023,235.082,264.7,263.62a4.112,4.112,0,0,1-3.992,3.359c-8.748.107-32.088.373-40.885.293a4.107,4.107,0,0,1-4.005-3.38l-5.145-28.377a4.113,4.113,0,0,1,4.011-4.847l51.256-.454A4.114,4.114,0,0,1,270.023,235.082Z" fill="#e6e6e6"/>
        <rect id="Rectangle_189" data-name="Rectangle 189" width="50.199" height="3.926" rx="1.076" transform="matrix(1, -0.004, 0.004, 1, 215.287, 266.865)" fill="#b3b3b3"/>
        <path id="Path_1408" data-name="Path 1408" d="M244.4,250.057a3.3,3.3,0,0,0-1.035-2.236,2.988,2.988,0,0,1-2.458,1.351,2.789,2.789,0,0,1-2.927-2,3.557,3.557,0,0,0-1.988,3.194,4.254,4.254,0,0,0,8.408-.3Z" fill="#fff"/>
      </g>
      <path id="Path_1409" data-name="Path 1409" d="M247.115,206.452c-1.667-3.636-1.061-9.394-4.243-8.788s-3.333,2.424-3.333,2.424-.909-2.727-2.576-2.424-4.394,1.364-4.849,6.97,2.273,7.728-2.273,9.4a8.666,8.666,0,0,0-2.757,1.59c1.676,6.617,6.852,11.441,12.985,11.441,7.414,0,13.428-7.049,13.55-15.794C251.383,210.374,248.166,208.745,247.115,206.452Z" fill="#fed4d5"/>
      <path id="Path_1410" data-name="Path 1410" d="M210.143,288.932c5.859,6.667,11.718,1.414,17.779,1.818,5.162.344,30.972,29.834,38.52,38.58l1.583-1.81s-46.669-59.4-56.367-61.519c-6.147-1.345-9.366,1.692-10.9,4.1C205.554,273.47,205.219,283.328,210.143,288.932Z" fill="#231f20" opacity="0.58" style="mix-blend-mode: overlay;isolation: isolate"/>
      <path id="Path_1411" data-name="Path 1411" d="M302.141,202.749l-3.089.335a21.079,21.079,0,0,0-8.4,10.062s-9.082.361-12.488,4.055l-1.881,2.563,2.81,3.9,13.01-6.045s11.7-11.584,11.6-11.744S302.141,202.749,302.141,202.749Z" fill="#fff"/>
      <path id="Path_1412" data-name="Path 1412" d="M302.581,201.565,291.846,213.13l14.9,23.158,8.967-12.381Z" fill="#2f3655"/>
      <path id="Path_1413" data-name="Path 1413" d="M274.392,219.856l14.92-4.945,14.9,23.158-14.934,3Z" fill="#2f3655"/>
      <rect id="Rectangle_190" data-name="Rectangle 190" width="3.79" height="28.171" transform="translate(288.91 214.869) rotate(-32.763)" fill="#1a2138"/>
      <path id="Path_1414" data-name="Path 1414" d="M173.694,202.749l3.089.335a21.084,21.084,0,0,1,8.4,10.062s9.081.361,12.488,4.055l1.881,2.563-2.811,3.9-13.01-6.045s-11.7-11.584-11.6-11.744S173.694,202.749,173.694,202.749Z" fill="#fff"/>
      <path id="Path_1415" data-name="Path 1415" d="M173.254,201.565l10.735,11.565-14.9,23.158-8.967-12.381Z" fill="#2f3655"/>
      <path id="Path_1416" data-name="Path 1416" d="M201.443,219.856l-14.92-4.945-14.9,23.158,14.934,3Z" fill="#2f3655"/>
      <rect id="Rectangle_191" data-name="Rectangle 191" width="3.79" height="28.171" transform="translate(171.68 238.559) rotate(-147.237)" fill="#1a2138"/>
      <path id="Path_1417" data-name="Path 1417" d="M225.575,247.887s-2.184-4.121-1.545-5.737A1.745,1.745,0,0,1,226.176,241s-3.391-5.988.53-5.877,4.5,2.865,4.459,5.778-2.407,7.812-2.407,7.812Z" fill="#fed4d5"/>
      <path id="Path_1418" data-name="Path 1418" d="M223.12,251.159l.919-5.647,6.824.88-1.538,5.807Z" fill="#2f3655"/>
      <path id="Path_1419" data-name="Path 1419" d="M210.754,284.784c-2.96-3.749,3.4-30.144,9.657-33.433,6.283-3.3,9.909-3.28,12.153.562s1.924,32.224-7.014,36.776C216.251,293.425,210.634,285.579,210.754,284.784Z" fill="#fb9844"/>
      <path id="Path_1420" data-name="Path 1420" d="M253.711,246.561s2.034-4.2,1.338-5.789a1.746,1.746,0,0,0-2.186-1.069s3.174-6.1-.74-5.854-4.394,3.024-4.249,5.935,2.686,7.72,2.686,7.72Z" fill="#fed4d5"/>
      <path id="Path_1421" data-name="Path 1421" d="M271.047,282.556c2.82-4.915-4.6-29.816-10.85-33.064-6.3-3.273-10.02-2.923-12.125,1s-1.556,34.8,8.329,36.5C265.636,288.577,268.48,286.684,271.047,282.556Z" fill="#fb9844"/>
      <path id="Path_1422" data-name="Path 1422" d="M256.282,249.743l-1.121-5.61-6.788,1.124L250.117,251Z" fill="#2f3655"/>
      <path id="Path_1423" data-name="Path 1423" d="M271.047,282.556c2.82-4.915-4.6-29.816-10.85-33.064-6.3-3.273-10.02-2.923-12.125,1s-1.556,34.8,8.329,36.5C265.636,288.577,268.48,286.684,271.047,282.556Z" fill="#fb9844"/>
      <path id="Path_1424" data-name="Path 1424" d="M250.979,214.407c0,.67-1.187,1.212-2.652,1.212s-2.652-.542-2.652-1.212,1.188-1.212,2.652-1.212S250.979,213.738,250.979,214.407Z" fill="#231f20" style="mix-blend-mode: overlay;isolation: isolate"/>
      <path id="Path_1425" data-name="Path 1425" d="M235.751,215.013c0,.67-1.12,1.213-2.5,1.213s-2.5-.543-2.5-1.213,1.12-1.212,2.5-1.212S235.751,214.344,235.751,215.013Z" fill="#231f20" style="mix-blend-mode: overlay;isolation: isolate"/>
      <path id="Path_1426" data-name="Path 1426" d="M253.176,266.607c-2.837-10.1-.59-15.937,1.853-19.085-3.279-.69-5.512.277-6.957,2.967-2.105,3.92-1.556,34.8,8.329,36.5,3.878.666,6.619.712,8.7.244C261.816,284.326,256.4,278.087,253.176,266.607Z" fill="#231f20" opacity="0.58" style="mix-blend-mode: overlay;isolation: isolate"/>
      <path id="Path_1427" data-name="Path 1427" d="M232.564,251.913c-1.889-3.234-4.78-3.728-9.388-1.845,1.927,2.977,4.3,7.755,4.392,13.054.121,6.9-1.618,19.494-10.584,26.679a11.475,11.475,0,0,0,8.566-1.112C234.488,284.137,234.808,255.755,232.564,251.913Z" fill="#231f20" opacity="0.58" style="mix-blend-mode: overlay;isolation: isolate"/>
    </g>
    <g id="Group_479" data-name="Group 479">
      <g id="Group_477" data-name="Group 477">
        <g id="Group_468" data-name="Group 468">
          <path id="Path_1428" data-name="Path 1428" d="M398.605,395.4a49.845,49.845,0,1,1-49.846-49.846A49.846,49.846,0,0,1,398.605,395.4Z" fill="#40c0c6"/>
        </g>
        <g id="Group_476" data-name="Group 476">
          <g id="Group_469" data-name="Group 469">
            <path id="Path_1429" data-name="Path 1429" d="M367.131,365.883c-.642-.637-1.125,1.28-.454,1.479S368.135,366.892,367.131,365.883Z" fill="#108c92"/>
          </g>
          <g id="Group_470" data-name="Group 470">
            <path id="Path_1430" data-name="Path 1430" d="M331.958,436.563c-.333-1.909-2.794-1.569-4.033-1.014s-1.006,3.251-.627,4.843a49.282,49.282,0,0,0,8.272,3.075,1.519,1.519,0,0,0-.25-.972C334.685,441.419,332.3,438.465,331.958,436.563Z" fill="#108c92"/>
          </g>
          <g id="Group_471" data-name="Group 471">
            <path id="Path_1431" data-name="Path 1431" d="M389.19,386.717c2.24.116,5.491-3.024,5.047-4.26s-3.14-.665-3.922-2.572-2.017-3.47-1.236-3.8,2.351,4.92,7.106,3.974a.11.11,0,0,0-.008-.039c-.1-.276-.738-2.02-1.556-4.159a49.515,49.515,0,0,0-5.454-9.647c.312.47,1.584,4.6-.088,4.719s-2.012-4.038-2.012-4.6a43.946,43.946,0,0,0-1.643-4.693c-.067-.077-.129-.144-.2-.222-.209-.222-.585-.611-1.073-1.109a50.255,50.255,0,0,0-9.389-7.446c-.2.575.158,1.574-.242,2.048-.56.671-2.239,2.351-4.144,2.24s-2.8-1-1.679-1.68,1.767-.224,2.242-2.355c.433-1.943-.031-2.358-.114-2.42A49.69,49.69,0,0,0,364.234,348c-.8,2.092-1.024,4.105.763,4.216s2.8.565,2.24,1.906-1.336,1.564-2.577,2.348-2.575,1.907-2.8.787-1.569-2.91-2.012-4.146-.56-2.464-1.458-1.344-1.966,2.131-2.83,3.359.926,1.344,2.6,2.02,2.017,1.791,1.568,2.572.733,1.048,1.12,1.909c.266.594.9,1.786,0,2.351s-3.8-1.122-4.7-.565-.219,3.927-.557,4.6,2.276.9,2.869,1.456,2.833-.676,3.4-1.566.449-1.91,1.568-2.913,2.132-.56,3.024-.9,0-.9.9-.338,4.479,2.8,4.26,3.475-1.8.222-1.915,1.12.8,1.285,1.355,1.256,1.447-1.478,2.012-1.816,1.68,1.068,3.022,1.822,1.79-2.268,2.466-2.72,5.6-.338,5.707.338-4.587-.116-5.147,1.344,1.788,1.9,3.024,2.8,2.022,4.03,2.128,6.272S386.956,386.6,389.19,386.717Z" fill="#108c92"/>
          </g>
          <g id="Group_472" data-name="Group 472">
            <path id="Path_1432" data-name="Path 1432" d="M357.833,370.138c-.841-.253-2.188.338-2.5,2.356s-1.984,2.463-3.1,4.029-1.567,7.965-1.009,10.194,3.7,5.717,5.826,6.053a28.6,28.6,0,0,0,7.51,0c2.007-.336,4.02,1.788,4.02,3.805s2.244,4.144,2.133,5.934-1.558,5.491,0,8.623,3.806,6.05,3.922,7.059,4.479-.449,6.607-3.021,2.242-2.359,2.908-5.044,2.131-3.693,2.356-5.15a19.847,19.847,0,0,0,0-5.155c-.225-2.123,3.921-7.051,4.138-8.958s-2.345-1.907-3.359-3.359-4.477-8.179-4.815-10.307-4.365-2.578-5.49-3.246-2.683.56-4.36-.56-4.822-4.257-6.269-4.257C364.887,369.134,359.291,370.592,357.833,370.138Z" fill="#108c92"/>
          </g>
          <g id="Group_473" data-name="Group 473">
            <path id="Path_1433" data-name="Path 1433" d="M313.477,391.632a5.285,5.285,0,0,1-.446,3.767c-.9,1.625-1.236,2.967,0,5.658s3.018,3.581,4.37,6.045,1.12,6.385,1.345,12.208,2.239,10.421,5.6,11.758c3.362,1.352-1.236-2.008-.9-4.247s.222-3.478,1.453-5.16,1.989-1,3.514-4.03,1.081-4.03,2.874-5.034,4.368.1,4.928-3.361-1.682-2.467.789-5.6-.116-3.695-2.244-4.931-4.26-1.344-5.266-2.575-.895-.892-2.691-2.8-3.135-1.68-5.483-3.251-4.386-2.8-5.663-1.79S313.317,390.99,313.477,391.632Z" fill="#108c92"/>
          </g>
          <g id="Group_474" data-name="Group 474">
            <path id="Path_1434" data-name="Path 1434" d="M321.883,353.412q-1.754,1.13-3.411,2.4c.4,1.8-1.414,2.678-1.974,3.459s.116,2.8-.449,2.916-1.114-2.24-1.186-3.326a49.933,49.933,0,0,0-13.3,20.452,26.531,26.531,0,0,1,1.718,5.944c.339,2.018,3.473.9,4.482,2.462a14.1,14.1,0,0,0,4.146,3.7c1.228.786,0-.782-.792-2.575-.777-1.791-1.785-3.809-1.564-5.1s-1.119-1.728-2.012-.717-1.458,1.228-1.9-1.122,2.123-2.689,3.465-3.248,2.012.443,2.915,1.23.782-.56,1.009-3.021,4.148-7.17,5.369-9.464,2.585-3.085,2.913-4.311,3.031-.676,5.266.106,2.131-.666,1.238-1.785-1.682-1.461-.787-2.242-.227-1.458-1.122-2.578-.893-2.688-1.226-3.178-1.679,1.615-2.8,1.718S321.578,353.615,321.883,353.412Z" fill="#108c92"/>
          </g>
          <g id="Group_475" data-name="Group 475">
            <path id="Path_1435" data-name="Path 1435" d="M331.176,348.749a13.936,13.936,0,0,1,2.013,2.578c.784,1.341,2.241,2.348,3.026,0a47.833,47.833,0,0,1,1.855-4.621A49.03,49.03,0,0,0,331.176,348.749Z" fill="#108c92"/>
          </g>
        </g>
      </g>
      <path id="Path_1436" data-name="Path 1436" d="M451.2,235.3s3.813-2.566,5.848-3.722,6.738-4.235,7.512-2.2-4.573,3.775-4.573,3.775,14.524-1.9,14.665,1.154-8.516,6.027-15.4,4.909l-6.872,2.962Z" fill="#fed4d5"/>
      <path id="Path_1437" data-name="Path 1437" d="M359.384,260.242l-2.568-5.6,48.442-1.683,46.764-19.772,3.861,8.469s-40.9,32.824-90.725,38.511Z" fill="#f15a24"/>
      <path id="Path_1438" data-name="Path 1438" d="M371.667,329.113s45.127-8.841,55.727-1.839,14.852,27.484-15.857,37.224-60.518,5.063-60.518,5.063l-13.72,12.55s-3.844.017-3.552-6.711,7.961-10.925,7.961-10.925l3.827-3.86,28.174-3.323-22.1.414s-1.069-25.3-.109-25.625S371.667,329.113,371.667,329.113Z" fill="#4d4d4d"/>
      <path id="Path_1439" data-name="Path 1439" d="M351.121,369.576a11.777,11.777,0,0,1-.884-2.906c-.355-2.076.365-5.145.8-6.7l10.492-1.238a69,69,0,0,0,.039,11.772C355.607,370.213,351.767,369.672,351.121,369.576Z" fill="#edb49f"/>
      <path id="Path_1440" data-name="Path 1440" d="M341.708,364.475l3.827-3.86,28.174-3.323-22.1.414s-.082-1.934-.179-4.734c.917.059,1.788.118,2.593.175,8.544.6,29.028-3.327,37.549-8.275s17.714-2.424,17.714-2.424c-10.032,1.11-18.323,9.9-28.342,14s-31.787,7.4-34.348,7.62-8.512,7.083-8.495,11.141a12.929,12.929,0,0,0,1.126,5.138l-1.928,1.763s-3.844.017-3.552-6.711S341.708,364.475,341.708,364.475Z" opacity="0.34" style="mix-blend-mode: overlay;isolation: isolate"/>
      <path id="Path_1441" data-name="Path 1441" d="M333.02,329.277s-45.2-8.456-55.741-1.364S262.662,355.523,293.453,365s60.559,4.547,60.559,4.547l13.827,12.433s3.844-.016,3.5-6.741-8.054-10.857-8.054-10.857l-3.86-3.827-28.2-3.083,22.1.226s.853-25.309-.109-25.625S333.02,329.277,333.02,329.277Z" fill="#4d4d4d"/>
      <path id="Path_1442" data-name="Path 1442" d="M378.427,324.961l-10.5-65.839a5.466,5.466,0,0,0-5.421-4.6l-23.164.1c-1.491.006-12.756.264-15.151,4.226L299.094,308.6c-4.113,6.15,8.736,14.744,12.849,8.594L330.294,289.6l-4.3,35.642a5.445,5.445,0,0,0,2.975,5.546c15.512,7.6,31.045,7.834,46.6-.121A5.443,5.443,0,0,0,378.427,324.961Z" fill="#f15a24"/>
      <path id="Path_1443" data-name="Path 1443" d="M362.544,225.7c.471-.094,8.748-11.861.243-17.684,0,0-.759,4.4-3.179,5.367,0,0-1.472-3.3-3.418-4.056a11.528,11.528,0,0,1-7.8,4.324c-4.837.307-8.7-2.682-12.5-.457s-3.211,5.21-3.211,5.21-5.4,1.563-5.159,6.086,6.265,12.635,6.265,12.635,4.331,2.079,7.757.419.671-8.134,2.306-9.765S362.544,225.7,362.544,225.7Z" fill="#f7931e"/>
      <path id="Path_1444" data-name="Path 1444" d="M342.461,240.563l-2.016,15.383c-.32,8,17.781,8.722,18.1.724l-2.459-13.123L343.1,240.72" fill="#fed4d5"/>
      <path id="Path_1445" data-name="Path 1445" d="M363.373,208.452c.717,2.333,1.507,6.829-1.869,9.542l-1.611-2s-1.9,4.253-8.463,5.8-13.213.136-14,2.862a3.3,3.3,0,0,0,1.538,3.918s-4.168-1.024-5.44,1.144a4.883,4.883,0,0,0-.624,3.927s-4.264-4.707-4.12-8.391,3.9-6.861,3.9-6.861-5.4,1.563-5.159,6.086,6.265,12.635,6.265,12.635,4.331,2.079,7.757.419.671-8.134,2.306-9.765,18.692-2.079,18.692-2.079C363,225.6,370.884,214.4,363.373,208.452Z" opacity="0.32" style="mix-blend-mode: overlay;isolation: isolate"/>
      <path id="Path_1446" data-name="Path 1446" d="M357.629,251.777l-1.542-8.23L343.1,240.72l-.642-.157-.8,6.088A24.417,24.417,0,0,0,357.629,251.777Z" opacity="0.76" style="mix-blend-mode: overlay;isolation: isolate"/>
      <path id="Path_1447" data-name="Path 1447" d="M361.286,221.4s6.571,18.289,3.236,22.871-4.562,5.8-10.655,5.545-12.147-6.9-12.147-6.9-4.866-1.483-6.747-4.375-.964-7.32,1.516-6.343a8.145,8.145,0,0,1,3.671,2.864s3.266.821,2.768-2.509-2.728-3.867-1.31-6.6S359.613,227.771,361.286,221.4Z" fill="#fed4d5"/>
      <path id="Path_1448" data-name="Path 1448" d="M361.286,221.4a4,4,0,0,1-2.5,2.629c2.084,5.641,5.576,15.92,4.5,18.785a19,19,0,0,1-5.039,6.775c2.639-.565,3.944-2.124,6.27-5.318C367.857,239.686,361.286,221.4,361.286,221.4Z" opacity="0.76" style="mix-blend-mode: overlay;isolation: isolate"/>
      <path id="Path_1449" data-name="Path 1449" d="M347.352,329.685c5.332-1.517,2.937-12.184,2.712-14.959s-13.044-4.216-15.831-6.766-1.177-25.621-1.177-25.621c-4.458,5.042-8.466,13.7-10.8,19.344l8.035-12.082-4.3,35.642a5.445,5.445,0,0,0,2.975,5.546,52.25,52.25,0,0,0,24.68,5.732C349.859,334.544,343.481,330.787,347.352,329.685Z" opacity="0.34" style="mix-blend-mode: overlay;isolation: isolate"/>
      <path id="Path_1450" data-name="Path 1450" d="M336.172,313.891l11.585,2.309s-.9-2.729,2.723-3,3.937,4.3,3.937,4.3,6.982.045,8.166,4.768-1.533,9.827-5.59,8.971-10.436-2.269-12.045-3.912l-1.609-1.643-9.809-3.16Z" fill="#edb49f"/>
      <path id="Path_1451" data-name="Path 1451" d="M304.865,318.63l37.724,8.665,2.606-13.337-38.38-8.378C298.766,304.377,296.816,317.427,304.865,318.63Z" fill="#f15a24"/>
      <path id="Path_1452" data-name="Path 1452" d="M353.911,369.564a11.871,11.871,0,0,0,.859-2.914c.337-2.078-.409-5.141-.853-6.7l-10.5-1.148a69.023,69.023,0,0,1,.062,11.772C349.43,370.239,353.265,369.666,353.911,369.564Z" fill="#edb49f"/>
      <path id="Path_1453" data-name="Path 1453" d="M363.28,364.383l-3.86-3.827-28.2-3.083,22.1.226s.066-1.935.139-4.736c-.917.067-1.787.133-2.592.2-8.539.677-29.055-3.079-37.617-7.954s-17.734-2.274-17.734-2.274c10.041,1.025,18.406,9.745,28.46,13.76s31.848,7.124,34.412,7.327,8.571,7.01,8.589,11.068a12.935,12.935,0,0,1-1.082,5.147l1.943,1.747s3.844-.016,3.5-6.741S363.28,364.383,363.28,364.383Z" opacity="0.34" style="mix-blend-mode: overlay;isolation: isolate"/>
      <g id="Group_478" data-name="Group 478">
        <path id="Path_1454" data-name="Path 1454" d="M393.194,312.5l-7.266,38.973a5.616,5.616,0,0,1-5.452,4.588c-11.946.145-43.821.508-55.834.4a5.61,5.61,0,0,1-5.47-4.616l-7.027-38.753a5.62,5.62,0,0,1,5.479-6.621l70-.619A5.618,5.618,0,0,1,393.194,312.5Z" fill="#e6e6e6"/>
        <rect id="Rectangle_192" data-name="Rectangle 192" width="68.555" height="5.362" rx="1.469" transform="matrix(1, -0.004, 0.004, 1, 318.443, 355.904)" fill="#b3b3b3"/>
        <path id="Path_1455" data-name="Path 1455" d="M358.2,332.95a4.516,4.516,0,0,0-1.414-3.053,4.081,4.081,0,0,1-3.356,1.846,3.813,3.813,0,0,1-4-2.74,4.861,4.861,0,0,0-2.714,4.363c.1,2.731,2.749,4.852,5.92,4.738S358.3,335.682,358.2,332.95Z" fill="#fff"/>
      </g>
      <path id="Path_1456" data-name="Path 1456" d="M355.091,237.292c0,.453-1.516.827-3.39.835s-3.4-.353-3.4-.806,1.516-.826,3.391-.834S355.089,236.84,355.091,237.292Z" opacity="0.76" style="mix-blend-mode: overlay;isolation: isolate"/>
    </g>
    <g id="Group_502" data-name="Group 502">
      <g id="Group_481" data-name="Group 481">
        <path id="Path_1457" data-name="Path 1457" d="M400.6,125.019a26.215,26.215,0,1,0-41.577,21.237v5.98a11.354,11.354,0,0,0,11.354,11.354h9.017a11.354,11.354,0,0,0,11.355-11.354v-6.743A26.163,26.163,0,0,0,400.6,125.019Z" fill="#fff200"/>
        <path id="Path_1458" data-name="Path 1458" d="M388.489,173.609c0,10.352-26.8,10.352-26.8,0V159.583h26.8Z" fill="#bcbec0"/>
        <g id="Group_480" data-name="Group 480">
          <rect id="Rectangle_193" data-name="Rectangle 193" width="26.8" height="3.006" transform="translate(361.69 161.753)" fill="#808285"/>
          <path id="Path_1459" data-name="Path 1459" d="M388.489,173.609v-3.34h-26.8v3.34a5.542,5.542,0,0,0,.177,1.336h26.445A5.544,5.544,0,0,0,388.489,173.609Z" fill="#808285"/>
        </g>
      </g>
      <circle id="Ellipse_94" data-name="Ellipse 94" cx="17.567" cy="17.567" r="17.567" transform="translate(357.432 108.743)" fill="#fff9a9"/>
      <g id="Group_485" data-name="Group 485">
        <g id="Group_482" data-name="Group 482">
          <path id="Path_1460" data-name="Path 1460" d="M372.9,92.1a2.185,2.185,0,0,1-2.185-2.184V83.362a2.185,2.185,0,1,1,4.369,0v6.553A2.184,2.184,0,0,1,372.9,92.1Z" fill="#fff200"/>
        </g>
        <g id="Group_483" data-name="Group 483">
          <path id="Path_1461" data-name="Path 1461" d="M372.9,70.126a2.185,2.185,0,0,1-2.185-2.185V52.52a2.185,2.185,0,0,1,4.369,0V67.941A2.184,2.184,0,0,1,372.9,70.126Z" fill="#fff200"/>
        </g>
        <g id="Group_484" data-name="Group 484">
          <path id="Path_1462" data-name="Path 1462" d="M372.9,39.283a2.185,2.185,0,0,1-2.185-2.184V30.546a2.185,2.185,0,1,1,4.369,0V37.1A2.184,2.184,0,0,1,372.9,39.283Z" fill="#fff200"/>
        </g>
      </g>
      <g id="Group_489" data-name="Group 489">
        <g id="Group_486" data-name="Group 486">
          <path id="Path_1463" data-name="Path 1463" d="M348.379,104.719a2.183,2.183,0,0,1-3.086.132l-4.827-4.432a2.184,2.184,0,1,1,2.955-3.218l4.827,4.432A2.184,2.184,0,0,1,348.379,104.719Z" fill="#fff200"/>
        </g>
        <g id="Group_487" data-name="Group 487">
          <path id="Path_1464" data-name="Path 1464" d="M332.194,89.858a2.185,2.185,0,0,1-3.087.132L317.748,79.56a2.184,2.184,0,0,1,2.955-3.218l11.359,10.43A2.184,2.184,0,0,1,332.194,89.858Z" fill="#fff200"/>
        </g>
        <g id="Group_488" data-name="Group 488">
          <path id="Path_1465" data-name="Path 1465" d="M309.475,69a2.184,2.184,0,0,1-3.086.132L301.562,64.7a2.184,2.184,0,1,1,2.954-3.218l4.827,4.432A2.184,2.184,0,0,1,309.475,69Z" fill="#fff200"/>
        </g>
      </g>
      <g id="Group_493" data-name="Group 493">
        <g id="Group_490" data-name="Group 490">
          <path id="Path_1466" data-name="Path 1466" d="M341.091,131.316a2.185,2.185,0,0,1-1.99,2.363l-6.529.558a2.184,2.184,0,1,1-.372-4.353l6.529-.558A2.184,2.184,0,0,1,341.091,131.316Z" fill="#fff200"/>
        </g>
        <g id="Group_491" data-name="Group 491">
          <path id="Path_1467" data-name="Path 1467" d="M319.2,133.188a2.184,2.184,0,0,1-1.99,2.362l-15.366,1.313a2.184,2.184,0,0,1-.372-4.352l15.365-1.314A2.186,2.186,0,0,1,319.2,133.188Z" fill="#fff200"/>
        </g>
        <g id="Group_492" data-name="Group 492">
          <path id="Path_1468" data-name="Path 1468" d="M288.467,135.814a2.184,2.184,0,0,1-1.99,2.362l-6.53.558a2.184,2.184,0,1,1-.372-4.352l6.529-.558A2.185,2.185,0,0,1,288.467,135.814Z" fill="#fff200"/>
        </g>
      </g>
      <g id="Group_497" data-name="Group 497">
        <g id="Group_494" data-name="Group 494">
          <path id="Path_1469" data-name="Path 1469" d="M401.621,104.719a2.183,2.183,0,0,0,3.086.132l4.827-4.432a2.184,2.184,0,0,0-2.955-3.218l-4.827,4.432A2.184,2.184,0,0,0,401.621,104.719Z" fill="#fff200"/>
        </g>
        <g id="Group_495" data-name="Group 495">
          <path id="Path_1470" data-name="Path 1470" d="M417.806,89.858a2.184,2.184,0,0,0,3.086.132l11.36-10.43a2.184,2.184,0,0,0-2.955-3.218l-11.359,10.43A2.184,2.184,0,0,0,417.806,89.858Z" fill="#fff200"/>
        </g>
        <g id="Group_496" data-name="Group 496">
          <path id="Path_1471" data-name="Path 1471" d="M440.525,69a2.184,2.184,0,0,0,3.086.132l4.827-4.432a2.184,2.184,0,1,0-2.954-3.218l-4.827,4.432A2.184,2.184,0,0,0,440.525,69Z" fill="#fff200"/>
        </g>
      </g>
      <g id="Group_501" data-name="Group 501">
        <g id="Group_498" data-name="Group 498">
          <path id="Path_1472" data-name="Path 1472" d="M408.908,131.316a2.186,2.186,0,0,0,1.991,2.363l6.529.558a2.184,2.184,0,0,0,.372-4.353l-6.529-.558A2.185,2.185,0,0,0,408.908,131.316Z" fill="#fff200"/>
        </g>
        <g id="Group_499" data-name="Group 499">
          <path id="Path_1473" data-name="Path 1473" d="M430.8,133.188a2.184,2.184,0,0,0,1.99,2.362l15.366,1.313a2.184,2.184,0,0,0,.372-4.352L433.164,131.2A2.186,2.186,0,0,0,430.8,133.188Z" fill="#fff200"/>
        </g>
        <g id="Group_500" data-name="Group 500">
          <path id="Path_1474" data-name="Path 1474" d="M461.533,135.814a2.183,2.183,0,0,0,1.99,2.362l6.53.558a2.184,2.184,0,1,0,.372-4.352l-6.53-.558A2.184,2.184,0,0,0,461.533,135.814Z" fill="#fff200"/>
        </g>
      </g>
    </g>
  </g>
</svg>
