<svg xmlns="http://www.w3.org/2000/svg" width="185" height="48" viewBox="0 0 185 48">
  <g id="Group_312" data-name="Group 312" transform="translate(-868 -4627)">
    <rect id="Rectangle_62" data-name="Rectangle 62" width="185" height="48" rx="24" transform="translate(868 4627)" fill="#1e73be"/>
    <text id="Learn_more" data-name="Learn more" transform="translate(960 4657)" fill="#fff" font-size="20" font-family="CenturyGothic-Bold, Century Gothic" font-weight="700"><tspan x="-54.8" y="0">Learn more</tspan></text>
  </g>
</svg>
