<svg xmlns="http://www.w3.org/2000/svg" width="58" height="5" viewBox="0 0 58 5">
  <line id="Line_111" data-name="Line 111" x2="58" transform="translate(0 2.5)" fill="none" stroke="#fff" stroke-width="5"/>
</svg>
