<svg xmlns="http://www.w3.org/2000/svg" width="2033.505" height="1514.489" viewBox="0 0 2033.505 1514.489">
  <path id="Path_1095" data-name="Path 1095" d="M-66.881,862.911C-12.756,971.2,81.659,1053.295,195.6,1091.135L1317.3,1463.675a447.272,447.272,0,0,0,345.062-26.449l304.141-155.688V-28H-67Z" transform="translate(67 28)" fill="#324762" opacity="0.8"/>
</svg>
