<svg id="Youtube" xmlns="http://www.w3.org/2000/svg" width="38.08" height="38.081" viewBox="0 0 38.08 38.081">
  <g id="Group_174" data-name="Group 174">
    <path id="Path_928" data-name="Path 928" d="M-766.966,410.788a19.062,19.062,0,0,1-19.04-19.04,19.062,19.062,0,0,1,19.04-19.04,19.062,19.062,0,0,1,19.04,19.04A19.062,19.062,0,0,1-766.966,410.788Zm0-36.035a17.014,17.014,0,0,0-16.995,16.995,17.014,17.014,0,0,0,16.995,16.995,17.014,17.014,0,0,0,16.994-16.995A17.014,17.014,0,0,0-766.966,374.752Z" transform="translate(786.006 -372.707)" fill="#fff"/>
  </g>
  <g id="Group_176" data-name="Group 176" transform="translate(7.979 11.263)">
    <g id="Group_175" data-name="Group 175">
      <path id="Path_929" data-name="Path 929" d="M-752.107,393.742a4.89,4.89,0,0,0-4.89-4.89h-12.682a4.89,4.89,0,0,0-4.89,4.89v5.944a4.89,4.89,0,0,0,4.89,4.89H-757a4.89,4.89,0,0,0,4.89-4.89Zm-8,3.271-5.058,2.774c-.22.119-.417-.04-.417-.29V393.8c0-.253.2-.412.424-.287l5.093,2.92A.331.331,0,0,1-760.108,397.013Z" transform="translate(774.568 -388.852)" fill="#fff"/>
    </g>
  </g>
</svg>
